{
  "category": 0,
  "total": 6492,
  "page": 1,
  "per_page": 6,
  "last_page": 1082,
  "news": [
    {
      "id": 12169,
      "title": "Университет ИТМО вошел в топ-300 мировых вузов в области бизнеса и экономики",
      "image_small": "https://news.itmo.ru/images/news/small/p12169.jpg",
      "image_big": "https://news.itmo.ru/images/news/big/p12169.jpg",
      "creation_date": "2021-10-13 14:39:46",
      "date": "2021-10-13 14:39:46",
      "view_count": 137,
      "parent_category": {
        "category_id": 4,
        "category_title": "Жизнь университета",
        "color_title": "magenta",
        "color": "#9B59B6"
      },
      "category": {
        "category_id": 16,
        "category_title": "Рейтинги",
        "color_title": "magenta",
        "color": "#9B59B6"
      },
      "url": "http://news.itmo.ru/ru/university_live/ratings/news/12169/",
      "lead": "<p>13 октября авторитетное британское издание Times Higher Education (THE) <a href=\"https://www.timeshighereducation.com/world-university-rankings/by-subject\">опубликовало</a> результаты четырех предметных рейтингов: Social sciences, Business and economics, Education, Law. ИТМО — снова в списке лучших университетов мира в области экономики и бизнеса.</p>"
    },
    {
      "id": 12104,
      "title": "Вакцинация против COVID–19 студентов и сотрудников Университета ИТМО (Спутник Лайт)",
      "image_small": "https://news.itmo.ru/images/news/small/p12104.jpg",
      "image_big": "https://news.itmo.ru/images/news/big/p12104.jpg",
      "creation_date": "2021-10-12 15:41:05",
      "date": "2021-10-12 15:41:05",
      "view_count": 2460,
      "parent_category": {
        "category_id": 4,
        "category_title": "Жизнь университета",
        "color_title": "magenta",
        "color": "#9B59B6"
      },
      "category": {
        "category_id": 19,
        "category_title": "Объявления",
        "color_title": "magenta",
        "color": "#9B59B6"
      },
      "url": "http://news.itmo.ru/ru/university_live/ads/news/12104/",
      "lead": "<p>В корпусах Университета ИТМО для обучающихся и сотрудников будет проводиться вакцинация против COVID-19. Используемая вакцина — «Спутник Лайт».</p>"
    },
    {
      "id": 12167,
      "title": "Рентгеновские лазерные технологии помогут узнать больше о нано- и биоматериалах",
      "image_small": "https://news.itmo.ru/images/news/small/p12167.jpg",
      "image_big": "https://news.itmo.ru/images/news/big/p12167.jpg",
      "creation_date": "2021-10-12 14:30:33",
      "date": "2021-10-12 14:30:33",
      "view_count": 335,
      "parent_category": {
        "category_id": 1,
        "category_title": "Наука",
        "color_title": "blue",
        "color": "#5065A1"
      },
      "category": {
        "category_id": 6,
        "category_title": "Фотоника",
        "color_title": "teal",
        "color": "#3A6F81"
      },
      "url": "http://news.itmo.ru/ru/science/photonics/news/12167/",
      "lead": "<p>В 2019 году в России <a href=\"https://www.minobrnauki.gov.ru/common/upload/library/2020/08/fntp_mega.pdf\">стартовала</a> программа развития синхротронных и нейтронных исследований. Рассчитана она до 2027 года, и за это время в стране должны появиться новые мегаустановки (установки класса Megascience): рентгеновские лазеры, синхротроны, источники нейтронов. В рамках программы Минобрнауки РФ в 2021 году <a href=\"https://minobrnauki.gov.ru/documents/?ELEMENT_ID=34037\">объявило</a> конкурс уже на проведение научных исследований и подготовку кадров, где команда ученых Университета ИТМО победила с проектом «Рентгеновские лазерные технологии в нано- и биоматериаловедении». Какой вклад внесут эти исследования в будущее мировой науки, рассказываем в нашем материале.</p>"
    },
    {
      "id": 12164,
      "title": "«Нанозащита» от контрафакта: в ИТМО разработали чернила, которые выводят борьбу с подделками на новый уровень",
      "image_small": "https://news.itmo.ru/images/news/small/p12164.jpg",
      "image_big": "https://news.itmo.ru/images/news/big/p12164.jpg",
      "creation_date": "2021-10-08 14:37:29",
      "date": "2021-10-08 14:37:29",
      "view_count": 480,
      "parent_category": {
        "category_id": 1,
        "category_title": "Наука",
        "color_title": "purple",
        "color": "#745EC5"
      },
      "category": {
        "category_id": 20,
        "category_title": "Новые материалы",
        "color_title": "teal",
        "color": "#3A6F81"
      },
      "url": "http://news.itmo.ru/ru/science/new_materials/news/12164/",
      "lead": "<p>Ученые Университета ИТМО, МГТУ им. Н. Э. Баумана и Университета Торонто разработали гелевые чернила, которые могут светиться при облучении монохроматическим светом разных длин волн. Такое свойство позволяет создавать действительно сложные узоры при нанесении меток и маркеров на продукцию — согласно мнению ученых, степень защиты этих структур гораздо выше, чем у существующих аналогов. Исследование поддержано грантом Российского научного фонда и Министерством науки и высшего образования РФ.</p>"
    },
    {
      "id": 12163,
      "title": "Юрий Андреев, победитель трека EduStars: «Главное качество преподавателя — понимать, чем сейчас живут студенты»",
      "image_small": "https://news.itmo.ru/images/news/small/p12163.jpg",
      "image_big": "https://news.itmo.ru/images/news/big/p12163.jpg",
      "creation_date": "2021-10-08 14:18:28",
      "date": "2021-10-08 14:18:28",
      "view_count": 537,
      "parent_category": {
        "category_id": 2,
        "category_title": "Образование",
        "color_title": "orange",
        "color": "#E67E22"
      },
      "category": {
        "category_id": 8,
        "category_title": "Тренды",
        "color_title": "orange",
        "color": "#E67E22"
      },
      "url": "http://news.itmo.ru/ru/education/trend/news/12163/",
      "lead": "<p>Продолжаем знакомство с обладателями <a href=\"http://expert.itmo.ru/awards\">премии за достижения в образовательной деятельности</a> Университета ИТМО. В этот раз редакция ITMO.NEWS пообщалась с лауреатом трека EduStars, заместителем декана факультета систем управления и робототехники Юрием Андреевым. Он рассказал, как быть со студентами на одной волне и какую обратную связь он считает самой лучшей.</p>"
    },
    {
      "id": 12162,
      "title": "В ИТМО выяснили, как увеличить продуктивность с помощью правильного освещения",
      "image_small": "https://news.itmo.ru/images/news/small/p12162.jpg",
      "image_big": "https://news.itmo.ru/images/news/big/p12162.jpg",
      "creation_date": "2021-10-07 16:40:24",
      "date": "2021-10-07 16:40:24",
      "view_count": 1080,
      "parent_category": {
        "category_id": 1,
        "category_title": "Наука",
        "color_title": "plum",
        "color": "#5E345E"
      },
      "category": {
        "category_id": 21,
        "category_title": "LifeScience",
        "color_title": "teal",
        "color": "#3A6F81"
      },
      "url": "http://news.itmo.ru/ru/science/life_science/news/12162/",
      "lead": "<p>Наверняка вы замечали, что ваше настроение и работоспособность могут меняться в зависимости от освещенности помещения, где вы находитесь длительное время. Влияние освещения на психоэмоциональное состояние человека изучается многими исследователями, в том числе Университета ИТМО. В научной лаборатории «Когнитивная невербалика» Национального центра когнитивных разработок Университета ИТМО провели эксперимент: почти два месяца группы добровольцев работали в специально оборудованном коворкинге, где каждую неделю сменялись режимы освещения. Чем закончился эксперимент и к каким выводам пришли исследователи — читайте в материале.</p>"
    }
  ]
}